41/Images/ALL0044/F0044CH1.CSV

Record Length,2.500000e+03,,   0.001485049000,   0.00136,
Sample Interval,2.000000e-10,,   0.001485049200,   0.00136,
Trigger Point,-7.425245000000e+06,,   0.001485049400,   0.00136,
,,,   0.001485049600,   0.00144,
,,,   0.001485049800,   0.00152,
,,,   0.001485050000,   0.00152,
Source,CH1,,   0.001485050200,   0.00160,
Vertical Units,V,,   0.001485050400,   0.00152,
Vertical Scale,2.000000e-03,,   0.001485050600,   0.00152,
Vertical Offset,-6.000000e-03,,   0.001485050800,   0.00152,
Horizontal Units,s,,   0.001485051000,   0.00152,
Horizontal Scale,5.000000e-08,,   0.001485051200,   0.00160,
Pt Fmt,Y,,   0.001485051400,   0.00168,
Yzero,0.000000e+00,,   0.001485051600,   0.00168,
Probe Atten,1.000000e+00,,   0.001485051800,   0.00168,
Model Number,TDS2022C,,   0.001485052000,   0.00168,
Serial Number,C011431,,   0.001485052200,   0.00160,
Firmware Version,FV:v24.09,,   0.001485052400,   0.00152,
,,,0.001485052600,   0.00152,
,,,0.001485052800,   0.00144,
,,,0.001485053000,   0.00144,
,,,0.001485053200,   0.00144,
,,,0.001485053400,   0.00136,
,,,0.001485053600,   0.00136,
,,,0.001485053800,   0.00136,
,,,0.001485054000,   0.00152,
,,,0.001485054200,   0.00160,
,,,0.001485054400,   0.00160,
,,,0.001485054600,   0.00152,
,,,0.001485054800,   0.00144,
,,,0.001485055000,   0.00128,
,,,0.001485055200,   0.00120,
,,,0.001485055400,   0.00112,
,,,0.001485055600,   0.00112,
,,,0.001485055800,   0.00120,
,,,0.001485056000,   0.00128,
,,,0.001485056200,   0.00136,
,,,0.001485056400,   0.00128,
,,,0.001485056600,   0.00128,
,,,0.001485056800,   0.00120,
,,,0.001485057000,   0.00112,
,,,0.001485057200,   0.00112,
,,,0.001485057400,   0.00112,
,,,0.001485057600,   0.00120,
,,,0.001485057800,   0.00128,
,,,0.001485058000,   0.00136,
,,,0.001485058200,   0.00144,
,,,0.001485058400,   0.00128,
,,,0.001485058600,   0.00120,
,,,0.001485058800,   0.00120,
,,,0.001485059000,   0.00120,
,,,0.001485059200,   0.00128,
,,,0.001485059400,   0.00128,
,,,0.001485059600,   0.00136,
,,,0.001485059800,   0.00128,
,,,0.001485060000,   0.00120,
,,,0.001485060200,   0.00120,
,,,0.001485060400,   0.00120,
,,,0.001485060600,   0.00120,
,,,0.001485060800,   0.00128,
,,,0.001485061000,   0.00128,
,,,0.001485061200,   0.00128,
,,,0.001485061400,   0.00120,
,,,0.001485061600,   0.00120,
,,,0.001485061800,   0.00120,
,,,0.001485062000,   0.00120,
,,,0.001485062200,   0.00120,
,,,0.001485062400,   0.00112,
,,,0.001485062600,   0.00120,
,,,0.001485062800,   0.00120,
,,,0.001485063000,   0.00128,
,,,0.001485063200,   0.00136,
,,,0.001485063400,   0.00136,
,,,0.001485063600,   0.00136,
,,,0.001485063800,   0.00128,
,,,0.001485064000,   0.00120,
,,,0.001485064200,   0.00120,
,,,0.001485064400,   0.00112,
,,,0.001485064600,   0.00112,
,,,0.001485064800,   0.00120,
,,,0.001485065000,   0.00128,
,,,0.001485065200,   0.00136,
,,,0.001485065400,   0.00136,
,,,0.001485065600,   0.00136,
,,,0.001485065800,   0.00136,
,,,0.001485066000,   0.00136,
,,,0.001485066200,   0.00144,
,,,0.001485066400,   0.00144,
,,,0.001485066600,   0.00144,
,,,0.001485066800,   0.00136,
,,,0.001485067000,   0.00128,
,,,0.001485067200,   0.00128,
,,,0.001485067400,   0.00120,
,,,0.001485067600,   0.00120,
,,,0.001485067800,   0.00120,
,,,0.001485068000,   0.00112,
,,,0.001485068200,   0.00120,
,,,0.001485068400,   0.00120,
,,,0.001485068600,   0.00120,
,,,0.001485068800,   0.00128,
,,,0.001485069000,   0.00128,
,,,0.001485069200,   0.00136,
,,,0.001485069400,   0.00136,
,,,0.001485069600,   0.00136,
,,,0.001485069800,   0.00136,
,,,0.001485070000,   0.00136,
,,,0.001485070200,   0.00136,
,,,0.001485070400,   0.00136,
,,,0.001485070600,   0.00144,
,,,0.001485070800,   0.00136,
,,,0.001485071000,   0.00136,
,,,0.001485071200,   0.00128,
,,,0.001485071400,   0.00120,
,,,0.001485071600,   0.00120,
,,,0.001485071800,   0.00120,
,,,0.001485072000,   0.00136,
,,,0.001485072200,   0.00144,
,,,0.001485072400,   0.00136,
,,,0.001485072600,   0.00136,
,,,0.001485072800,   0.00128,
,,,0.001485073000,   0.00128,
,,,0.001485073200,   0.00128,
,,,0.001485073400,   0.00128,
,,,0.001485073600,   0.00136,
,,,0.001485073800,   0.00136,
,,,0.001485074000,   0.00136,
,,,0.001485074200,   0.00128,
,,,0.001485074400,   0.00120,
,,,0.001485074600,   0.00120,
,,,0.001485074800,   0.00120,
,,,0.001485075000,   0.00120,
,,,0.001485075200,   0.00128,
,,,0.001485075400,   0.00128,
,,,0.001485075600,   0.00128,
,,,0.001485075800,   0.00120,
,,,0.001485076000,   0.00120,
,,,0.001485076200,   0.00120,
,,,0.001485076400,   0.00120,
,,,0.001485076600,   0.00128,
,,,0.001485076800,   0.00136,
,,,0.001485077000,   0.00136,
,,,0.001485077200,   0.00144,
,,,0.001485077400,   0.00136,
,,,0.001485077600,   0.00136,
,,,0.001485077800,   0.00128,
,,,0.001485078000,   0.00128,
,,,0.001485078200,   0.00128,
,,,0.001485078400,   0.00128,
,,,0.001485078600,   0.00128,
,,,0.001485078800,   0.00136,
,,,0.001485079000,   0.00136,
,,,0.001485079200,   0.00144,
,,,0.001485079400,   0.00136,
,,,0.001485079600,   0.00136,
,,,0.001485079800,   0.00144,
,,,0.001485080000,   0.00160,
,,,0.001485080200,   0.00176,
,,,0.001485080400,   0.00168,
,,,0.001485080600,   0.00160,
,,,0.001485080800,   0.00152,
,,,0.001485081000,   0.00152,
,,,0.001485081200,   0.00152,
,,,0.001485081400,   0.00160,
,,,0.001485081600,   0.00168,
,,,0.001485081800,   0.00176,
,,,0.001485082000,   0.00168,
,,,0.001485082200,   0.00168,
,,,0.001485082400,   0.00168,
,,,0.001485082600,   0.00168,
,,,0.001485082800,   0.00160,
,,,0.001485083000,   0.00160,
,,,0.001485083200,   0.00160,
,,,0.001485083400,   0.00152,
,,,0.001485083600,   0.00152,
,,,0.001485083800,   0.00160,
,,,0.001485084000,   0.00168,
,,,0.001485084200,   0.00184,
,,,0.001485084400,   0.00184,
,,,0.001485084600,   0.00192,
,,,0.001485084800,   0.00184,
,,,0.001485085000,   0.00184,
,,,0.001485085200,   0.00176,
,,,0.001485085400,   0.00168,
,,,0.001485085600,   0.00168,
,,,0.001485085800,   0.00168,
,,,0.001485086000,   0.00176,
,,,0.001485086200,   0.00184,
,,,0.001485086400,   0.00176,
,,,0.001485086600,   0.00176,
,,,0.001485086800,   0.00168,
,,,0.001485087000,   0.00160,
,,,0.001485087200,   0.00160,
,,,0.001485087400,   0.00152,
,,,0.001485087600,   0.00144,
,,,0.001485087800,   0.00144,
,,,0.001485088000,   0.00144,
,,,0.001485088200,   0.00152,
,,,0.001485088400,   0.00152,
,,,0.001485088600,   0.00152,
,,,0.001485088800,   0.00144,
,,,0.001485089000,   0.00144,
,,,0.001485089200,   0.00144,
,,,0.001485089400,   0.00144,
,,,0.001485089600,   0.00152,
,,,0.001485089800,   0.00160,
,,,0.001485090000,   0.00152,
,,,0.001485090200,   0.00152,
,,,0.001485090400,   0.00152,
,,,0.001485090600,   0.00152,
,,,0.001485090800,   0.00160,
,,,0.001485091000,   0.00160,
,,,0.001485091200,   0.00168,
,,,0.001485091400,   0.00160,
,,,0.001485091600,   0.00160,
,,,0.001485091800,   0.00160,
,,,0.001485092000,   0.00160,
,,,0.001485092200,   0.00168,
,,,0.001485092400,   0.00160,
,,,0.001485092600,   0.00160,
,,,0.001485092800,   0.00160,
,,,0.001485093000,   0.00160,
,,,0.001485093200,   0.00168,
,,,0.001485093400,   0.00168,
,,,0.001485093600,   0.00176,
,,,0.001485093800,   0.00168,
,,,0.001485094000,   0.00168,
,,,0.001485094200,   0.00160,
,,,0.001485094400,   0.00152,
,,,0.001485094600,   0.00144,
,,,0.001485094800,   0.00144,
,,,0.001485095000,   0.00152,
,,,0.001485095200,   0.00160,
,,,0.001485095400,   0.00160,
,,,0.001485095600,   0.00160,
,,,0.001485095800,   0.00152,
,,,0.001485096000,   0.00144,
,,,0.001485096200,   0.00144,
,,,0.001485096400,   0.00144,
,,,0.001485096600,   0.00152,
,,,0.001485096800,   0.00160,
,,,0.001485097000,   0.00160,
,,,0.001485097200,   0.00160,
,,,0.001485097400,   0.00152,
,,,0.001485097600,   0.00152,
,,,0.001485097800,   0.00152,
,,,0.001485098000,   0.00152,
,,,0.001485098200,   0.00152,
,,,0.001485098400,   0.00152,
,,,0.001485098600,   0.00152,
,,,0.001485098800,   0.00152,
,,,0.001485099000,   0.00152,
,,,0.001485099200,   0.00152,
,,,0.001485099400,   0.00144,
,,,0.001485099600,   0.00144,
,,,0.001485099800,   0.00136,
,,,0.001485100000,   0.00136,
,,,0.001485100200,   0.00136,
,,,0.001485100400,   0.00136,
,,,0.001485100600,   0.00136,
,,,0.001485100800,   0.00144,
,,,0.001485101000,   0.00152,
,,,0.001485101200,   0.00152,
,,,0.001485101400,   0.00136,
,,,0.001485101600,   0.00128,
,,,0.001485101800,   0.00120,
,,,0.001485102000,   0.00120,
,,,0.001485102200,   0.00128,
,,,0.001485102400,   0.00136,
,,,0.001485102600,   0.00144,
,,,0.001485102800,   0.00152,
,,,0.001485103000,   0.00152,
,,,0.001485103200,   0.00152,
,,,0.001485103400,   0.00144,
,,,0.001485103600,   0.00144,
,,,0.001485103800,   0.00144,
,,,0.001485104000,   0.00136,
,,,0.001485104200,   0.00136,
,,,0.001485104400,   0.00120,
,,,0.001485104600,   0.00112,
,,,0.001485104800,   0.00104,
,,,0.001485105000,   0.00104,
,,,0.001485105200,   0.00112,
,,,0.001485105400,   0.00120,
,,,0.001485105600,   0.00128,
,,,0.001485105800,   0.00136,
,,,0.001485106000,   0.00128,
,,,0.001485106200,   0.00128,
,,,0.001485106400,   0.00120,
,,,0.001485106600,   0.00120,
,,,0.001485106800,   0.00128,
,,,0.001485107000,   0.00136,
,,,0.001485107200,   0.00144,
,,,0.001485107400,   0.00136,
,,,0.001485107600,   0.00128,
,,,0.001485107800,   0.00120,
,,,0.001485108000,   0.00104,
,,,0.001485108200,   0.00096,
,,,0.001485108400,   0.00096,
,,,0.001485108600,   0.00096,
,,,0.001485108800,   0.00096,
,,,0.001485109000,   0.00096,
,,,0.001485109200,   0.00096,
,,,0.001485109400,   0.00096,
,,,0.001485109600,   0.00096,
,,,0.001485109800,   0.00088,
,,,0.001485110000,   0.00088,
,,,0.001485110200,   0.00088,
,,,0.001485110400,   0.00088,
,,,0.001485110600,   0.00088,
,,,0.001485110800,   0.00096,
,,,0.001485111000,   0.00088,
,,,0.001485111200,   0.00088,
,,,0.001485111400,   0.00080,
,,,0.001485111600,   0.00080,
,,,0.001485111800,   0.00072,
,,,0.001485112000,   0.00072,
,,,0.001485112200,   0.00072,
,,,0.001485112400,   0.00072,
,,,0.001485112600,   0.00080,
,,,0.001485112800,   0.00088,
,,,0.001485113000,   0.00088,
,,,0.001485113200,   0.00096,
,,,0.001485113400,   0.00088,
,,,0.001485113600,   0.00088,
,,,0.001485113800,   0.00088,
,,,0.001485114000,   0.00088,
,,,0.001485114200,   0.00096,
,,,0.001485114400,   0.00096,
,,,0.001485114600,   0.00104,
,,,0.001485114800,   0.00096,
,,,0.001485115000,   0.00096,
,,,0.001485115200,   0.00088,
,,,0.001485115400,   0.00080,
,,,0.001485115600,   0.00080,
,,,0.001485115800,   0.00080,
,,,0.001485116000,   0.00088,
,,,0.001485116200,   0.00104,
,,,0.001485116400,   0.00104,
,,,0.001485116600,   0.00104,
,,,0.001485116800,   0.00096,
,,,0.001485117000,   0.00088,
,,,0.001485117200,   0.00080,
,,,0.001485117400,   0.00080,
,,,0.001485117600,   0.00080,
,,,0.001485117800,   0.00088,
,,,0.001485118000,   0.00080,
,,,0.001485118200,   0.00080,
,,,0.001485118400,   0.00072,
,,,0.001485118600,   0.00072,
,,,0.001485118800,   0.00072,
,,,0.001485119000,   0.00088,
,,,0.001485119200,   0.00104,
,,,0.001485119400,   0.00112,
,,,0.001485119600,   0.00120,
,,,0.001485119800,   0.00112,
,,,0.001485120000,   0.00112,
,,,0.001485120200,   0.00104,
,,,0.001485120400,   0.00096,
,,,0.001485120600,   0.00096,
,,,0.001485120800,   0.00088,
,,,0.001485121000,   0.00072,
,,,0.001485121200,   0.00072,
,,,0.001485121400,   0.00080,
,,,0.001485121600,   0.00088,
,,,0.001485121800,   0.00096,
,,,0.001485122000,   0.00096,
,,,0.001485122200,   0.00104,
,,,0.001485122400,   0.00104,
,,,0.001485122600,   0.00104,
,,,0.001485122800,   0.00104,
,,,0.001485123000,   0.00104,
,,,0.001485123200,   0.00112,
,,,0.001485123400,   0.00096,
,,,0.001485123600,   0.00088,
,,,0.001485123800,   0.00088,
,,,0.001485124000,   0.00088,
,,,0.001485124200,   0.00096,
,,,0.001485124400,   0.00096,
,,,0.001485124600,   0.00104,
,,,0.001485124800,   0.00096,
,,,0.001485125000,   0.00088,
,,,0.001485125200,   0.00080,
,,,0.001485125400,   0.00072,
,,,0.001485125600,   0.00072,
,,,0.001485125800,   0.00080,
,,,0.001485126000,   0.00088,
,,,0.001485126200,   0.00096,
,,,0.001485126400,   0.00096,
,,,0.001485126600,   0.00104,
,,,0.001485126800,   0.00096,
,,,0.001485127000,   0.00096,
,,,0.001485127200,   0.00096,
,,,0.001485127400,   0.00096,
,,,0.001485127600,   0.00104,
,,,0.001485127800,   0.00112,
,,,0.001485128000,   0.00112,
,,,0.001485128200,   0.00112,
,,,0.001485128400,   0.00104,
,,,0.001485128600,   0.00096,
,,,0.001485128800,   0.00088,
,,,0.001485129000,   0.00088,
,,,0.001485129200,   0.00096,
,,,0.001485129400,   0.00096,
,,,0.001485129600,   0.00096,
,,,0.001485129800,   0.00104,
,,,0.001485130000,   0.00096,
,,,0.001485130200,   0.00096,
,,,0.001485130400,   0.00088,
,,,0.001485130600,   0.00080,
,,,0.001485130800,   0.00080,
,,,0.001485131000,   0.00088,
,,,0.001485131200,   0.00104,
,,,0.001485131400,   0.00104,
,,,0.001485131600,   0.00112,
,,,0.001485131800,   0.00104,
,,,0.001485132000,   0.00104,
,,,0.001485132200,   0.00096,
,,,0.001485132400,   0.00088,
,,,0.001485132600,   0.00088,
,,,0.001485132800,   0.00088,
,,,0.001485133000,   0.00088,
,,,0.001485133200,   0.00096,
,,,0.001485133400,   0.00096,
,,,0.001485133600,   0.00104,
,,,0.001485133800,   0.00096,
,,,0.001485134000,   0.00096,
,,,0.001485134200,   0.00096,
,,,0.001485134400,   0.00096,
,,,0.001485134600,   0.00096,
,,,0.001485134800,   0.00096,
,,,0.001485135000,   0.00096,
,,,0.001485135200,   0.00096,
,,,0.001485135400,   0.00096,
,,,0.001485135600,   0.00104,
,,,0.001485135800,   0.00112,
,,,0.001485136000,   0.00112,
,,,0.001485136200,   0.00112,
,,,0.001485136400,   0.00104,
,,,0.001485136600,   0.00096,
,,,0.001485136800,   0.00096,
,,,0.001485137000,   0.00096,
,,,0.001485137200,   0.00104,
,,,0.001485137400,   0.00104,
,,,0.001485137600,   0.00112,
,,,0.001485137800,   0.00112,
,,,0.001485138000,   0.00104,
,,,0.001485138200,   0.00104,
,,,0.001485138400,   0.00096,
,,,0.001485138600,   0.00088,
,,,0.001485138800,   0.00088,
,,,0.001485139000,   0.00096,
,,,0.001485139200,   0.00112,
,,,0.001485139400,   0.00112,
,,,0.001485139600,   0.00104,
,,,0.001485139800,   0.00096,
,,,0.001485140000,   0.00088,
,,,0.001485140200,   0.00088,
,,,0.001485140400,   0.00088,
,,,0.001485140600,   0.00088,
,,,0.001485140800,   0.00096,
,,,0.001485141000,   0.00096,
,,,0.001485141200,   0.00104,
,,,0.001485141400,   0.00104,
,,,0.001485141600,   0.00104,
,,,0.001485141800,   0.00096,
,,,0.001485142000,   0.00088,
,,,0.001485142200,   0.00088,
,,,0.001485142400,   0.00080,
,,,0.001485142600,   0.00080,
,,,0.001485142800,   0.00088,
,,,0.001485143000,   0.00088,
,,,0.001485143200,   0.00096,
,,,0.001485143400,   0.00096,
,,,0.001485143600,   0.00104,
,,,0.001485143800,   0.00096,
,,,0.001485144000,   0.00088,
,,,0.001485144200,   0.00088,
,,,0.001485144400,   0.00088,
,,,0.001485144600,   0.00088,
,,,0.001485144800,   0.00080,
,,,0.001485145000,   0.00080,
,,,0.001485145200,   0.00080,
,,,0.001485145400,   0.00072,
,,,0.001485145600,   0.00080,
,,,0.001485145800,   0.00080,
,,,0.001485146000,   0.00080,
,,,0.001485146200,   0.00088,
,,,0.001485146400,   0.00080,
,,,0.001485146600,   0.00080,
,,,0.001485146800,   0.00080,
,,,0.001485147000,   0.00080,
,,,0.001485147200,   0.00080,
,,,0.001485147400,   0.00072,
,,,0.001485147600,   0.00072,
,,,0.001485147800,   0.00064,
,,,0.001485148000,   0.00064,
,,,0.001485148200,   0.00072,
,,,0.001485148400,   0.00072,
,,,0.001485148600,   0.00080,
,,,0.001485148800,   0.00088,
,,,0.001485149000,   0.00088,
,,,0.001485149200,   0.00088,
,,,0.001485149400,   0.00080,
,,,0.001485149600,   0.00088,
,,,0.001485149800,   0.00088,
,,,0.001485150000,   0.00096,
,,,0.001485150200,   0.00104,
,,,0.001485150400,   0.00112,
,,,0.001485150600,   0.00112,
,,,0.001485150800,   0.00112,
,,,0.001485151000,   0.00112,
,,,0.001485151200,   0.00104,
,,,0.001485151400,   0.00096,
,,,0.001485151600,   0.00096,
,,,0.001485151800,   0.00096,
,,,0.001485152000,   0.00104,
,,,0.001485152200,   0.00112,
,,,0.001485152400,   0.00112,
,,,0.001485152600,   0.00112,
,,,0.001485152800,   0.00112,
,,,0.001485153000,   0.00112,
,,,0.001485153200,   0.00112,
,,,0.001485153400,   0.00112,
,,,0.001485153600,   0.00112,
,,,0.001485153800,   0.00112,
,,,0.001485154000,   0.00112,
,,,0.001485154200,   0.00112,
,,,0.001485154400,   0.00104,
,,,0.001485154600,   0.00104,
,,,0.001485154800,   0.00112,
,,,0.001485155000,   0.00128,
,,,0.001485155200,   0.00136,
,,,0.001485155400,   0.00128,
,,,0.001485155600,   0.00128,
,,,0.001485155800,   0.00128,
,,,0.001485156000,   0.00128,
,,,0.001485156200,   0.00136,
,,,0.001485156400,   0.00136,
,,,0.001485156600,   0.00136,
,,,0.001485156800,   0.00144,
,,,0.001485157000,   0.00144,
,,,0.001485157200,   0.00152,
,,,0.001485157400,   0.00144,
,,,0.001485157600,   0.00144,
,,,0.001485157800,   0.00136,
,,,0.001485158000,   0.00136,
,,,0.001485158200,   0.00136,
,,,0.001485158400,   0.00136,
,,,0.001485158600,   0.00136,
,,,0.001485158800,   0.00128,
,,,0.001485159000,   0.00128,
,,,0.001485159200,   0.00128,
,,,0.001485159400,   0.00128,
,,,0.001485159600,   0.00136,
,,,0.001485159800,   0.00144,
,,,0.001485160000,   0.00136,
,,,0.001485160200,   0.00136,
,,,0.001485160400,   0.00128,
,,,0.001485160600,   0.00128,
,,,0.001485160800,   0.00128,
,,,0.001485161000,   0.00128,
,,,0.001485161200,   0.00136,
,,,0.001485161400,   0.00136,
,,,0.001485161600,   0.00136,
,,,0.001485161800,   0.00136,
,,,0.001485162000,   0.00136,
,,,0.001485162200,   0.00144,
,,,0.001485162400,   0.00136,
,,,0.001485162600,   0.00136,
,,,0.001485162800,   0.00128,
,,,0.001485163000,   0.00128,
,,,0.001485163200,   0.00128,
,,,0.001485163400,   0.00120,
,,,0.001485163600,   0.00120,
,,,0.001485163800,   0.00128,
,,,0.001485164000,   0.00136,
,,,0.001485164200,   0.00144,
,,,0.001485164400,   0.00152,
,,,0.001485164600,   0.00152,
,,,0.001485164800,   0.00160,
,,,0.001485165000,   0.00160,
,,,0.001485165200,   0.00160,
,,,0.001485165400,   0.00160,
,,,0.001485165600,   0.00160,
,,,0.001485165800,   0.00152,
,,,0.001485166000,   0.00144,
,,,0.001485166200,   0.00144,
,,,0.001485166400,   0.00144,
,,,0.001485166600,   0.00144,
,,,0.001485166800,   0.00152,
,,,0.001485167000,   0.00152,
,,,0.001485167200,   0.00152,
,,,0.001485167400,   0.00144,
,,,0.001485167600,   0.00136,
,,,0.001485167800,   0.00136,
,,,0.001485168000,   0.00136,
,,,0.001485168200,   0.00136,
,,,0.001485168400,   0.00128,
,,,0.001485168600,   0.00128,
,,,0.001485168800,   0.00128,
,,,0.001485169000,   0.00136,
,,,0.001485169200,   0.00144,
,,,0.001485169400,   0.00144,
,,,0.001485169600,   0.00144,
,,,0.001485169800,   0.00144,
,,,0.001485170000,   0.00144,
,,,0.001485170200,   0.00144,
,,,0.001485170400,   0.00136,
,,,0.001485170600,   0.00136,
,,,0.001485170800,   0.00128,
,,,0.001485171000,   0.00128,
,,,0.001485171200,   0.00128,
,,,0.001485171400,   0.00120,
,,,0.001485171600,   0.00120,
,,,0.001485171800,   0.00128,
,,,0.001485172000,   0.00136,
,,,0.001485172200,   0.00144,
,,,0.001485172400,   0.00144,
,,,0.001485172600,   0.00136,
,,,0.001485172800,   0.00128,
,,,0.001485173000,   0.00112,
,,,0.001485173200,   0.00104,
,,,0.001485173400,   0.00104,
,,,0.001485173600,   0.00104,
,,,0.001485173800,   0.00112,
,,,0.001485174000,   0.00128,
,,,0.001485174200,   0.00136,
,,,0.001485174400,   0.00128,
,,,0.001485174600,   0.00120,
,,,0.001485174800,   0.00120,
,,,0.001485175000,   0.00120,
,,,0.001485175200,   0.00120,
,,,0.001485175400,   0.00112,
,,,0.001485175600,   0.00112,
,,,0.001485175800,   0.00120,
,,,0.001485176000,   0.00136,
,,,0.001485176200,   0.00144,
,,,0.001485176400,   0.00144,
,,,0.001485176600,   0.00136,
,,,0.001485176800,   0.00128,
,,,0.001485177000,   0.00120,
,,,0.001485177200,   0.00112,
,,,0.001485177400,   0.00104,
,,,0.001485177600,   0.00104,
,,,0.001485177800,   0.00104,
,,,0.001485178000,   0.00104,
,,,0.001485178200,   0.00112,
,,,0.001485178400,   0.00104,
,,,0.001485178600,   0.00104,
,,,0.001485178800,   0.00104,
,,,0.001485179000,   0.00104,
,,,0.001485179200,   0.00104,
,,,0.001485179400,   0.00096,
,,,0.001485179600,   0.00096,
